<?xml version="1.0" encoding="UTF-8" standalone="no"?>
<!-- Created with Inkscape (http://www.inkscape.org/) -->
<svg id="svg2" xmlns:rdf="http://www.w3.org/1999/02/22-rdf-syntax-ns#" xmlns="http://www.w3.org/2000/svg" height="81.689mm" viewBox="0 0 87.977775 289.44584" width="24.829mm" version="1.1" xmlns:cc="http://creativecommons.org/ns#" xmlns:dc="http://purl.org/dc/elements/1.1/">
 <defs id="defs8">
  <filter id="filter5572" style="color-interpolation-filters:sRGB" height="1.0153" width="1.0554" y="-.0076573" x="-.027722">
   <feGaussianBlur id="feGaussianBlur5574" stdDeviation="0.88432377"/>
  </filter>
 </defs>
 <metadata id="metadata7">
  <rdf:RDF>
   <cc:Work rdf:about="">
    <dc:format>image/svg+xml</dc:format>
    <dc:type rdf:resource="http://purl.org/dc/dcmitype/StillImage"/>
    <dc:title/>
   </cc:Work>
  </rdf:RDF>
 </metadata>
 <g id="g5576" transform="translate(-.047693 -.046008)">
  <path id="rect3336" opacity=".4" style="color:#000000" fill-opacity=".6" d="m10.204 2.1004c-4.477 0-10.046 4.8967-8.0812 9.1363l60 129.47-60 129.47c-2.1282 4.5923 3.6042 9.1363 8.0812 9.1363s6.9925-6.7611 8.0812-9.1363 60-129.47 60-129.47l-60-129.47c-2.1282-4.5923-3.6042-9.1363-8.0812-9.1363z"/>
  <g>
   <path id="path4854" opacity="0.401" style="color:#000000" d="m10.204 2.1c4.477 0 5.9538 4.5443 8.082 9.1366l60 129.47s-58.911 127.1-60 129.47c-1.0887 2.3752-3.605 9.1366-8.082 9.1366s-10.21-4.5443-8.082-9.1366l60.002-129.47-60.002-129.47c-1.9645-4.243 3.6052-9.14 8.082-9.14zm0 0.71092c-1.9801 0-4.3702 1.141-5.9492 2.7637s-2.3214 3.5697-1.4902 5.3632l59.999 129.47a0.70896 0.70896 0 0 1 0 0.59766l-59.999 129.47c-0.92449 1.9949-0.17034 3.9119 1.4199 5.4863 1.5902 1.5743 4.0207 2.6406 6.0195 2.6406 1.8817 0 3.4546-1.4597 4.7226-3.3613s2.1506-4.1282 2.7148-5.3593c0.56684-1.2367 15.546-33.561 30.41-65.632 14.794-31.921 29.316-63.251 29.453-63.546l-59.861-129.18c-1.076-2.3149-1.979-4.5722-3.1-6.1762-1.121-1.6038-2.341-2.5429-4.34-2.5429z"/>
   <path id="path5553" opacity=".6" style="color:#000000" d="m16.877 8.144c0.46458 0.99579 0.91906 2.0363 1.4082 3.0918l60 129.47s-58.911 127.1-59.999 129.47c-1.0887 2.3752-3.603 9.1366-8.08 9.1366-0.80237 0-1.646-0.15194-2.4765-0.41796 0.52563 3.5116 4.8971 6.4179 8.4765 6.4179 4.477 0 6.9913-6.7614 8.08-9.1366s59.999-129.47 59.999-129.47l-59.999-129.47c-2.0171-4.3527-3.4522-8.6538-7.4081-9.0917z"/>
   <path id="path5555" opacity="0.401" style="color:#000000" d="m16.877 8.144c0.11594 0.2485 0.23617 0.51671 0.35157 0.77148 1.414 0.27517 2.4024 1.1298 3.3164 2.4375 1.1209 1.6039 2.0243 3.8613 3.0996 6.1816l59.86 129.18c-0.13693 0.29543-14.659 31.625-29.453 63.546-14.864 32.071-29.843 64.396-30.41 65.632-0.56427 1.2311-1.4468 3.4577-2.7148 5.3593s-2.8409 3.3613-4.7226 3.3613c-1.9988 0-4.4292-1.0663-6.0195-2.6406-0.87186-0.86315-1.4786-1.8299-1.709-2.8554-0.24946-0.0574-0.49935-0.13127-0.74804-0.21093 0.52732 3.5107 4.8979 6.416 8.4765 6.416 4.477 0 6.9933-6.7614 8.082-9.1366s59.999-129.47 59.999-129.47l-59.999-129.48c-2.0171-4.3527-3.4541-8.6538-7.4101-9.0917z" filter="url(#filter5572)"/>
  </g>
 </g>
</svg>
